  digraph G {
  subgraph cluster_rad {
    style ="filled";
    color ="lightgrey";
    node [style=filled,color=white];
    label ="RAD";
    userdesing [label="User Desing"];
    construction [label="Construction"];
    userdesing -> construction -> userdesing;
  }
  requerplan [label="Requirements Planning"];
  requerplan -> userdesing;
  construction -> cutover;
  node [shape=box,style=filled,color=".7 .3 1.0"];
  title [label="RAD/Team"];
  subgraph cluster_stakeholders {
    style ="filled";
    color ="lightskyblue";
    node [style=filled,color=white];
    label ="Work";
    initiated [label="Initiated"];
    prepared [label="Prepared"];
    started [label="Started"];
    undercontrol [label="Under Control"];
    concluded [label="Concluded"];
    cloused [label="Cloused"];
    }
    node [shape=box,style=filled,color="darkseagreen3"];
    initiated -> userdesing;
    prepared -> userdesing;
    started -> userdesing;
    undercontrol -> construction;
    concluded -> cutover;
    cloused -> cutover;
  }
